(footprint "MountingHole_1.2mm_Pad" (version 20211014) (generator pcbnew)
  (layer "F.Cu")
  (tedit 62313C06)
  (descr "Mounting Hole 2.2mm, M2, DIN965")
  (tags "mounting hole 2.2mm m2 din965")
  (attr exclude_from_pos_files exclude_from_bom)
  (fp_text reference "REF**" (at 0 -2.54) (layer "F.SilkS")
    (effects (font (size 1 1) (thickness 0.15)))
    (tstamp 4e2cde59-810a-4dea-8810-52da90c1106e)
  )
  (fp_text value "MountingHole_1.2mm_Pad" (at 0 2.54) (layer "F.Fab")
    (effects (font (size 1 1) (thickness 0.15)))
    (tstamp 14994ebf-f361-4ec4-8ce0-083a3e51f68e)
  )
  (fp_text user "${REFERENCE}" (at 0.3 0) (layer "F.Fab")
    (effects (font (size 1 1) (thickness 0.15)))
    (tstamp 2e5af9c0-c36c-4efa-9541-3967c8b3210f)
  )
  (fp_circle (center 0 0) (end 1.3 0) (layer "Cmts.User") (width 0.15) (fill none) (tstamp ebd09f57-f1eb-4035-9778-e725368edccc))
  (fp_circle (center 0 0) (end 1.6 0) (layer "F.CrtYd") (width 0.05) (fill none) (tstamp e258da40-22ce-4dff-bf7b-8ecf9aa2b432))
  (pad "1" thru_hole circle (at 0 0) (size 2.2 2.2) (drill 1.2) (layers *.Cu *.Mask) (tstamp 4ea61ad8-a7cb-40bb-9227-523ac7869c4f))
)
