(kicad_symbol_lib (version 20220914) (generator kicad_symbol_editor)
  (symbol "Connector_OEM_SNES_Controller_Header-wire-to-board" (in_bom no) (on_board yes)
    (property "Reference" "J" (at -7.62 10.16 0)
      (effects (font (size 1.27 1.27)))
    )
    (property "Value" "Connector_OEM_SNES_Controller_Header-wire-to-board" (at 2.54 -2.54 0)
      (effects (font (size 1.27 1.27)))
    )
    (property "Footprint" "" (at 0 0 0)
      (effects (font (size 1.27 1.27)) hide)
    )
    (property "Datasheet" "" (at 0 0 0)
      (effects (font (size 1.27 1.27)) hide)
    )
    (symbol "Connector_OEM_SNES_Controller_Header-wire-to-board_0_1"
      (rectangle (start -7.62 7.62) (end 7.62 2.54)
        (stroke (width 0) (type default))
        (fill (type none))
      )
    )
    (symbol "Connector_OEM_SNES_Controller_Header-wire-to-board_1_1"
      (pin power_out line (at -5.08 0 90) (length 2.54)
        (name "GND" (effects (font (size 1.27 1.27))))
        (number "1" (effects (font (size 1.27 1.27))))
      )
      (pin input inverted (at -2.54 0 90) (length 2.54)
        (name "SDA" (effects (font (size 1.27 1.27))))
        (number "2" (effects (font (size 1.27 1.27))))
      )
      (pin output inverted_clock (at 0 0 90) (length 2.54)
        (name "SDL" (effects (font (size 1.27 1.27))))
        (number "3" (effects (font (size 1.27 1.27))))
      )
      (pin output inverted_clock (at 2.54 0 90) (length 2.54)
        (name "SCK" (effects (font (size 1.27 1.27))))
        (number "4" (effects (font (size 1.27 1.27))))
      )
      (pin power_out line (at 5.08 0 90) (length 2.54)
        (name "VCC" (effects (font (size 1.27 1.27))))
        (number "5" (effects (font (size 1.27 1.27))))
      )
    )
  )
)
